%YAML 1.1
%TAG !u! tag:unity3d.com,2011:
--- !u!319 &31900000
AvatarMask:
  m_ObjectHideFlags: 0
  m_CorrespondingSourceObject: {fileID: 0}
  m_PrefabInstance: {fileID: 0}
  m_PrefabAsset: {fileID: 0}
  m_Name: Lover body
  m_Mask: 01000000000000000000000001000000010000000000000000000000000000000000000001000000010000000000000000000000
  m_Elements:
  - m_Path: 
    m_Weight: 1
  - m_Path: Attach
    m_Weight: 1
  - m_Path: Player_Mesh
    m_Weight: 1
  - m_Path: Root
    m_Weight: 1
  - m_Path: Root/Pelvis
    m_Weight: 1
  - m_Path: Root/Pelvis/Hip_L
    m_Weight: 1
  - m_Path: Root/Pelvis/Hip_L/Knee_L
    m_Weight: 1
  - m_Path: Root/Pelvis/Hip_L/Knee_L/Ankle_L
    m_Weight: 1
  - m_Path: Root/Pelvis/Hip_L/Knee_L/Ankle_L/Toes_L
    m_Weight: 1
  - m_Path: Root/Pelvis/Hip_L/Knee_L/Ankle_L/Toes_L/ToesEnd_L
    m_Weight: 1
  - m_Path: Root/Pelvis/Hip_R
    m_Weight: 1
  - m_Path: Root/Pelvis/Hip_R/Knee_R
    m_Weight: 1
  - m_Path: Root/Pelvis/Hip_R/Knee_R/Ankle_R
    m_Weight: 1
  - m_Path: Root/Pelvis/Hip_R/Knee_R/Ankle_R/Toes_R
    m_Weight: 1
  - m_Path: Root/Pelvis/Spine1_M
    m_Weight: 0
  - m_Path: Root/Pelvis/Spine1_M/Chest_M
    m_Weight: 0
  - m_Path: Root/Pelvis/Spine1_M/Chest_M/Neck_M
    m_Weight: 0
  - m_Path: Root/Pelvis/Spine1_M/Chest_M/Neck_M/Head_M
    m_Weight: 0
  - m_Path: Root/Pelvis/Spine1_M/Chest_M/Scapula_L
    m_Weight: 0
  - m_Path: Root/Pelvis/Spine1_M/Chest_M/Scapula_L/Shoulder_L
    m_Weight: 0
  - m_Path: Root/Pelvis/Spine1_M/Chest_M/Scapula_L/Shoulder_L/Elbow_L
    m_Weight: 0
  - m_Path: Root/Pelvis/Spine1_M/Chest_M/Scapula_L/Shoulder_L/Elbow_L/Wrist_L
    m_Weight: 0
  - m_Path: Root/Pelvis/Spine1_M/Chest_M/Scapula_L/Shoulder_L/Elbow_L/Wrist_L/IndexFinger1_L
    m_Weight: 0
  - m_Path: Root/Pelvis/Spine1_M/Chest_M/Scapula_L/Shoulder_L/Elbow_L/Wrist_L/IndexFinger1_L/IndexFinger2_L
    m_Weight: 0
  - m_Path: Root/Pelvis/Spine1_M/Chest_M/Scapula_L/Shoulder_L/Elbow_L/Wrist_L/MiddleFinger1_L
    m_Weight: 0
  - m_Path: Root/Pelvis/Spine1_M/Chest_M/Scapula_L/Shoulder_L/Elbow_L/Wrist_L/MiddleFinger1_L/MiddleFinger2_L
    m_Weight: 0
  - m_Path: Root/Pelvis/Spine1_M/Chest_M/Scapula_L/Shoulder_L/Elbow_L/Wrist_L/ThumbFinger1_L
    m_Weight: 0
  - m_Path: Root/Pelvis/Spine1_M/Chest_M/Scapula_L/Shoulder_L/Elbow_L/Wrist_L/ThumbFinger1_L/ThumbFinger2_L
    m_Weight: 0
  - m_Path: Root/Pelvis/Spine1_M/Chest_M/Scapula_L/Shoulder_L/Elbow_L/Wrist_L/ThumbFinger1_L/ThumbFinger2_L/ThumbFinger3_L
    m_Weight: 0
  - m_Path: Root/Pelvis/Spine1_M/Chest_M/Scapula_L/Shoulder_L/Pauldron_L
    m_Weight: 0
  - m_Path: Root/Pelvis/Spine1_M/Chest_M/Scapula_R
    m_Weight: 0
  - m_Path: Root/Pelvis/Spine1_M/Chest_M/Scapula_R/Shoulder_R
    m_Weight: 0
  - m_Path: Root/Pelvis/Spine1_M/Chest_M/Scapula_R/Shoulder_R/Elbow_R
    m_Weight: 0
  - m_Path: Root/Pelvis/Spine1_M/Chest_M/Scapula_R/Shoulder_R/Elbow_R/Wrist_R
    m_Weight: 0
  - m_Path: Root/Pelvis/Spine1_M/Chest_M/Scapula_R/Shoulder_R/Elbow_R/Wrist_R/Attach_R
    m_Weight: 0
  - m_Path: Root/Pelvis/Spine1_M/Chest_M/Scapula_R/Shoulder_R/Elbow_R/Wrist_R/IndexFinger1_R
    m_Weight: 0
  - m_Path: Root/Pelvis/Spine1_M/Chest_M/Scapula_R/Shoulder_R/Elbow_R/Wrist_R/IndexFinger1_R/IndexFinger2_R
    m_Weight: 0
  - m_Path: Root/Pelvis/Spine1_M/Chest_M/Scapula_R/Shoulder_R/Elbow_R/Wrist_R/MiddleFinger1_R
    m_Weight: 0
  - m_Path: Root/Pelvis/Spine1_M/Chest_M/Scapula_R/Shoulder_R/Elbow_R/Wrist_R/MiddleFinger1_R/MiddleFinger2_R
    m_Weight: 0
  - m_Path: Root/Pelvis/Spine1_M/Chest_M/Scapula_R/Shoulder_R/Elbow_R/Wrist_R/ThumbFinger1_R
    m_Weight: 0
  - m_Path: Root/Pelvis/Spine1_M/Chest_M/Scapula_R/Shoulder_R/Elbow_R/Wrist_R/ThumbFinger1_R/ThumbFinger2_R
    m_Weight: 0
  - m_Path: Root/Pelvis/Spine1_M/Chest_M/Scapula_R/Shoulder_R/Elbow_R/Wrist_R/ThumbFinger1_R/ThumbFinger2_R/ThumbFinger3_R
    m_Weight: 0
  - m_Path: Root/Pelvis/Spine1_M/Chest_M/Scapula_R/Shoulder_R/Pauldron_R
    m_Weight: 0
